Collider bias for binary variables • AscRtain
…
The parameter values that meet the target OR due to collider bias

x$param
#> # A tibble: 6,770 x 9
#>       pA    pY   pAY     b0      ba      by   bay    ps1    or
#>    <dbl> <dbl> <dbl>  <dbl>   <dbl>   <dbl> <dbl>  <dbl> <dbl>
#>  1  0.15   0.1     0 0.0317 0.00101 -0.0312     0 0.0287  2.91
#>  2  0.15   0.1     0 0.0317 0.00302 -0.0312     0 0.0290  6.39
#>  3  0.15   0.1     0 0.0322 0.00302 -0.0312     0 0.0295  3.66
#>  4  0.15   0.1     0 0.0317 0.00503 -0.0312     0 0.0293  9.49
#>  5  0.15   0.1     0 0.0322 0.00503 -0.0312     0 0.0298  5.19
#>  6  0.15   0.1     0 0.0317 0.00704 -0.0312     0 0.0296 12.3 
#>  7  0.15   0.1     0 0.0317 0.00905 -0.0312     0 0.0299 14.8 
#>  8  0.15   0.1     0 0.0296 0.00101 -0.0291     0 0.0269  2.90
#>  9  0.15   0.1     0 0.0296 0.00302 -0.0291     0 0.0272  6.35
#> 10  0.15   0.1     0 0.0302 0.00302 -0.0291     0 0.0277  3.64
#> # … with 6,760 more rows
…
